---
source: src/backends/mod.rs
expression: "super::Latex {}.emit(&ast, &cfgs)"
---
\begin{onlyenv}<1>
    \begin{lstlisting}[language=spade, style=base]
                fn main()
    \end{lstlisting}
\end{onlyenv}
