---
source: src/backends/mod.rs
expression: "super::Typst { prelude: \"prelude\\n\".to_string() }.emit(&ast, &cfgs)"
---
prelude

#only(1, [#box(text(raw("level1"), fill: unfocused_color))\
#box(text(raw("----"), fill: rgb(0, 0, 0, 0)))#box(raw("level 2", lang: ""))#box(text(raw(""), fill: rgb(0, 0, 0, 0)))\
])

