---
source: src/backends/mod.rs
expression: "super::Latex {}.emit(&ast, &cfgs)"
---
\begin{onlyenv}<1>
    \begin{lstlisting}[]
fn
    \end{lstlisting}
\end{onlyenv}
\begin{onlyenv}<2>
    \begin{lstlisting}[]

    \end{lstlisting}
\end{onlyenv}
\begin{onlyenv}<3>
    \begin{lstlisting}[]
pipeline
    \end{lstlisting}
\end{onlyenv}
