---
source: src/backends/mod.rs
expression: "super::Latex {}.emit(&ast, &cfgs)"
---
\begin{onlyenv}<1>
    \begin{lstlisting}[]
@hfnh@ main
    \end{lstlisting}
\end{onlyenv}
\begin{onlyenv}<2>
    \begin{lstlisting}[]
fn @hmainh@
    \end{lstlisting}
\end{onlyenv}
